EESchema Schematic File Version 4
EELAYER 30 0
EELAYER END
$Descr User 7874 7874
encoding utf-8
Sheet 1 1
Title "SC21-LockPickingCommunity-MiniBadge"
Date "2021-08-21"
Rev ""
Comp "redactd"
Comment1 ""
Comment2 ""
Comment3 ""
Comment4 ""
$EndDescr
$Comp
L saintcon-minibadge:SAINTCON-Minibadge-Simple X1
U 1 1 6121C7C8
P 3650 2900
F 0 "X1" V 3053 2900 60  0000 C CNN
F 1 "SAINTCON-2021-LockPickingCommunity-Minibadge" V 3159 2900 60  0000 C CNN
F 2 "minibadge_kicad:SAINTCON-Minibadge-Simple" H 3650 2950 60  0001 C CNN
F 3 "" H 3650 2950 60  0001 C CNN
	1    3650 2900
	0    1    1    0   
$EndComp
NoConn ~ 4250 2550
NoConn ~ 4250 2650
$Comp
L power:+3.3V #PWR0101
U 1 1 6121D939
P 3050 3150
F 0 "#PWR0101" H 3050 3000 50  0001 C CNN
F 1 "+3.3V" V 3065 3278 50  0000 L CNN
F 2 "" H 3050 3150 50  0001 C CNN
F 3 "" H 3050 3150 50  0001 C CNN
	1    3050 3150
	0    -1   -1   0   
$EndComp
$Comp
L power:+3.3V #PWR0102
U 1 1 6121EC39
P 4250 3150
F 0 "#PWR0102" H 4250 3000 50  0001 C CNN
F 1 "+3.3V" V 4265 3278 50  0000 L CNN
F 2 "" H 4250 3150 50  0001 C CNN
F 3 "" H 4250 3150 50  0001 C CNN
	1    4250 3150
	0    1    1    0   
$EndComp
$Comp
L power:GND #PWR0103
U 1 1 6121FD5A
P 4250 3250
F 0 "#PWR0103" H 4250 3000 50  0001 C CNN
F 1 "GND" H 4255 3077 50  0000 C CNN
F 2 "" H 4250 3250 50  0001 C CNN
F 3 "" H 4250 3250 50  0001 C CNN
	1    4250 3250
	1    0    0    -1  
$EndComp
$Comp
L power:GND #PWR0104
U 1 1 61220EE6
P 3050 3250
F 0 "#PWR0104" H 3050 3000 50  0001 C CNN
F 1 "GND" H 3055 3077 50  0000 C CNN
F 2 "" H 3050 3250 50  0001 C CNN
F 3 "" H 3050 3250 50  0001 C CNN
	1    3050 3250
	1    0    0    -1  
$EndComp
$Comp
L Device:R R1
U 1 1 61225C78
P 2750 4050
F 0 "R1" H 2820 4096 50  0000 L CNN
F 1 "R" H 2820 4005 50  0000 L CNN
F 2 "Resistor_SMD:R_0603_1608Metric" V 2680 4050 50  0001 C CNN
F 3 "" H 2750 4050 50  0001 C CNN
	1    2750 4050
	0    1    1    0   
$EndComp
$Comp
L power:GND #PWR0105
U 1 1 61233323
P 3000 4450
F 0 "#PWR0105" H 3000 4200 50  0001 C CNN
F 1 "GND" H 3005 4277 50  0000 C CNN
F 2 "" H 3000 4450 50  0001 C CNN
F 3 "" H 3000 4450 50  0001 C CNN
	1    3000 4450
	1    0    0    -1  
$EndComp
Wire Wire Line
	3000 4450 3000 4300
Wire Wire Line
	4500 4300 4500 4150
Wire Wire Line
	4100 4150 4100 4300
Connection ~ 4100 4300
Wire Wire Line
	4100 4300 4500 4300
Wire Wire Line
	3700 4150 3700 4300
Wire Wire Line
	3000 4300 3250 4300
Connection ~ 3700 4300
Wire Wire Line
	3700 4300 4100 4300
Wire Wire Line
	3250 4150 3250 4300
Connection ~ 3250 4300
Wire Wire Line
	3250 4300 3700 4300
$Comp
L Device:LED D1
U 1 1 6121D262
P 3400 4150
F 0 "D1" H 3393 4367 50  0000 C CNN
F 1 "LED" H 3393 4276 50  0000 C CNN
F 2 "LED_SMD:LED_0402_1005Metric" H 3400 4150 50  0001 C CNN
F 3 "150040GS73240" H 3400 4150 50  0001 C CNN
	1    3400 4150
	1    0    0    -1  
$EndComp
$Comp
L power:+3.3V #PWR0106
U 1 1 612220C8
P 2600 4050
F 0 "#PWR0106" H 2600 3900 50  0001 C CNN
F 1 "+3.3V" H 2615 4223 50  0000 C CNN
F 2 "" H 2600 4050 50  0001 C CNN
F 3 "" H 2600 4050 50  0001 C CNN
	1    2600 4050
	1    0    0    -1  
$EndComp
Wire Wire Line
	2900 4050 3550 4050
Wire Wire Line
	3550 4050 3550 4150
Wire Wire Line
	3550 4050 4000 4050
Wire Wire Line
	4000 4050 4000 4150
Connection ~ 3550 4050
Wire Wire Line
	4000 4050 4400 4050
Wire Wire Line
	4400 4050 4400 4150
Connection ~ 4000 4050
Wire Wire Line
	4400 4050 4800 4050
Wire Wire Line
	4800 4050 4800 4150
Connection ~ 4400 4050
$Comp
L Device:LED D2
U 1 1 61223B43
P 3850 4150
F 0 "D2" H 3843 4367 50  0000 C CNN
F 1 "LED" H 3843 4276 50  0000 C CNN
F 2 "LED_SMD:LED_0402_1005Metric" H 3850 4150 50  0001 C CNN
F 3 "150040GS73240" H 3850 4150 50  0001 C CNN
	1    3850 4150
	1    0    0    -1  
$EndComp
$Comp
L Device:LED D3
U 1 1 61224280
P 4250 4150
F 0 "D3" H 4243 4367 50  0000 C CNN
F 1 "LED" H 4243 4276 50  0000 C CNN
F 2 "LED_SMD:LED_0402_1005Metric" H 4250 4150 50  0001 C CNN
F 3 "150040GS73240" H 4250 4150 50  0001 C CNN
	1    4250 4150
	1    0    0    -1  
$EndComp
$Comp
L Device:LED D4
U 1 1 612247F6
P 4650 4150
F 0 "D4" H 4643 4367 50  0000 C CNN
F 1 "LED" H 4643 4276 50  0000 C CNN
F 2 "LED_SMD:LED_0402_1005Metric" H 4650 4150 50  0001 C CNN
F 3 "150040GS73240" H 4650 4150 50  0001 C CNN
	1    4650 4150
	1    0    0    -1  
$EndComp
$EndSCHEMATC
